{
  "section": {
    "blocks": [
      {
        "type": "image",
        "settings": {
          "text_position": "right",
          "image": "//via.placeholder.com/2160x1200",
          "image_intermediate": "//via.placeholder.com/1150x600",
          "image_mobile": "//via.placeholder.com/660x730",
          "title": "A hero heading",
          "text": "A hero subheading",
          "btn_text_1": "A primary button",
          "btn_link_1": "https://barrelny.com",
          "btn_text_2": "A secondary button",
          "btn_link_2": "https://barrelny.com"
        }
      },
      {
        "type": "video",
        "settings": {
          "text_position": "middle-left",
          "video": "https://player.vimeo.com/external/276908465.hd.mp4?s=8a8e3cbe14e01d7d57376ff5150a5c094bda7501&profile_id=175",
          "fallback_intermediate": "//via.placeholder.com/1150x600",
          "fallback_mobile": "//via.placeholder.com/660x730",
          "title": "I'm a video",
          "text": "A hero subheading",
          "btn_text_1": "A primary button",
          "btn_text_2": "A secondary button"
        }
      },
      {
        "type": "image",
        "settings": {
          "text_position": "top-left",
          "image": "//via.placeholder.com/2160x1200",
          "image_intermediate": "//via.placeholder.com/1150x600",
          "image_mobile": "//via.placeholder.com/660x730",
          "title": "A hero heading",
          "text": "A hero subheading",
          "btn_text_1": "Just one button",
          "btn_text_2": ""
        }
      }
    ]
  }
}
