{
  "section": {
    "blocks": [
      {
        "type": "brand",
        "settings": {
          "title": "Our Brand",
          "logo": "",
          "label_1": "100g",
          "label_2": "true",
          "label_3": "true",
          "label_4": "true",
          "label_5": "true",
          "label_6": "true"
        }
      },
      {
        "type": "brand",
        "settings": {
          "title": "Other Brand",
          "logo": "",
          "label_1": "150g",
          "label_2": "true",
          "label_3": "true",
          "label_4": "false",
          "label_5": "true",
          "label_6": "false"
        }
      },
      {
        "type": "brand",
        "settings": {
          "title": "Other Brand",
          "logo": "",
          "label_1": "400g",
          "label_2": "true",
          "label_3": "true",
          "label_4": "false",
          "label_5": "false",
          "label_6": "false"
        }
      },
      {
        "type": "brand",
        "settings": {
          "title": "Other Brand",
          "logo": "",
          "label_1": "400g",
          "label_2": "true",
          "label_3": "false",
          "label_4": "true",
          "label_5": "false",
          "label_6": "false"
        }
      },
      {
        "type": "brand",
        "settings": {
          "title": "Other Brand",
          "logo": "",
          "label_1": "110g",
          "label_2": "true",
          "label_3": "false",
          "label_4": "false",
          "label_5": "false",
          "label_6": "false"
        }
      },
      {
        "type": "brand",
        "settings": {
          "title": "Other Brand",
          "logo": "",
          "label_1": "120g",
          "label_2": "false",
          "label_3": "false",
          "label_4": "true",
          "label_5": "true",
          "label_6": "false"
        }
      }
    ],
    "settings": {
      "background_color": "white",
      "title": "The Choice is Clear",
      "label_1": "Weight",
      "label_2": "Scratch Resistent",
      "label_3": "Edible Plastic",
      "label_4": "Hypnosis-Proof",
      "label_5": "X-Ray",
      "label_6": "Made from Recycled Human"
    }
  }
}
