{
  "token":"9b2004cd82cd84a3f174db7867141272",
  "note":null,
  "attributes":{

  },
  "original_total_price":32500,
  "total_price":32500,
  "total_discount":0,
  "total_weight":0.0,
  "item_count":5,
  "items":[
    {
      "id":12374476685377,
      "properties":null,
      "quantity":2,
      "variant_id":12374476685377,
      "key":"12374476685377:06668259f91700c30e26d570fdf23d45",
      "title":"Crosby St Shirt Dress - 4 \/ White",
      "price":5900,
      "original_price":5900,
      "discounted_price":5900,
      "line_price":11800,
      "original_line_price":11800,
      "total_discount":0,
      "discounts":[

      ],
      "sku":"1806DR60-White4",
      "grams":0,
      "vendor":"ChoosyUSA",
      "taxable":true,
      "product_id":1363051446337,
      "gift_card":false,
      "url":"\/products\/crosby-st-shirt-dress?variant=12374476685377",
      "image":"\/assets\/bestsellers.jpg?v=1549980740",
      "handle":"crosby-st-shirt-dress",
      "requires_shipping":true,
      "product_type":"1806DR60",
      "product_title":"Crosby St Shirt Dress",
      "product_description":"A playful take on a classic. This deep plunge mini features oversized sleeves \u0026amp; a fitted silhouette at the waist, creating the illusion of a front knot.\nInspired by Kim Kardashian 🍑\nStyle Scout tip: Because of the cut of this dress, we suggest fashion tape to keep everything in place. For our bustier baes we recommend wearing this look with your favorite lace bodysuit for added support.\nPlease allow 1 business day for your made to order item to be shipped.\nMore Details\nShell: 45% Rayon, 37% Polyester, 18% Nylon\nDaria is 5’9 \u0026amp; is wearing a size 2. \n",
      "variant_title":"4 \/ White",
      "variant_options":[
          "4",
          "White"
      ]
    },
    {
      "id":12452474224705,
      "properties":null,
      "quantity":3,
      "variant_id":12452474224705,
      "key":"12452474224705:c28f48dd54d960bf5b35f11a229e8f14",
      "title":"OG Bae Dress - 4 \/ Red",
      "price":6900,
      "original_price":6900,
      "discounted_price":6900,
      "line_price":20700,
      "original_line_price":20700,
      "total_discount":0,
      "discounts":[

      ],
      "sku":"18050101-Red4",
      "grams":0,
      "vendor":"ChoosyUSA",
      "taxable":true,
      "product_id":1370090405953,
      "gift_card":false,
      "url":"\/products\/og-bae-dress?variant=12452474224705",
      "image":"\/assets\/backinstock_5582f565-2b52-4d2e-b22e-2ff288b0b7d0_1920x.jpg?v=1549924498",
      "handle":"og-bae-dress",
      "requires_shipping":true,
      "product_type":"18050101",
      "product_title":"OG Bae Dress",
      "product_description":"\u0026lt;!--\ntd {border: 1px solid #ccc;}br {mso-data-placement:same-cell;}\n--\u003e\u0026lt;!--\ntd {border: 1px solid #ccc;}br {mso-data-placement:same-cell;}\n--\u003e\u0026lt;!--\ntd {border: 1px solid #ccc;}br {mso-data-placement:same-cell;}\n--\u003e\nThis red lace bodice dress comes with a built in boyshort featuring a pleated mesh maxi skirt with subtle polka-dot details. Delicate frills accentuate the waist \u0026amp; v-neckline of this look.Inspired by Rihanna 🔥Style Scout tip: We suggest our bustier baes wear this look with their favorite lace bralette for additional support.\nPlease allow 1 business day for your made to order item to be shipped.\nMore Details\nShell: 100% Polyester, Lining: 100% Polyester, Lace: 90% Nylon, 10% SpandexDaria is 5’9 \u0026amp; is wearing a size 2.",
      "variant_title":"4 \/ Red",
      "variant_options":[
          "4",
          "Red"
      ]
    }
  ],
  "requires_shipping":true,
  "currency":"USD"
}
