{
  "section" : {
    "settings": {
      "title": "Cider Crafted Lighter",
      "text": "Did you know our cider contains roughly two-thirds less sugar than our largest competitors? That means less time spent at the gym, more time enjoying a cider you can feel good about.",
      "cta_text": "Click Here",
      "cta_url": "#",
      "image": "//via.placeholder.com/800x800"
    }
  }
}
