{
  "section": {
    "settings": {
      "title": "Hear From Our Customers",
      "text": "Lorem ipsum dolor sit amet, consectetur adipiscing elit. Nulla pharetra sodales porta. Phasellus iaculis nibh purus, id dictum ex"
    }
  }
}