{
  "section": {
    "blocks": [
      {
        "type": "image",
        "settings": {
          "image": "//via.placeholder.com/225x60"
        }
      },
      {
        "type": "image",
        "settings": {
          "image": "//via.placeholder.com/225x60"
        }
      },
      {
        "type": "image",
        "settings": {
          "image": "//via.placeholder.com/225x60"
        }
      },
      {
        "type": "image",
        "settings": {
          "image": "//via.placeholder.com/225x60"
        }
      },
      {
        "type": "image",
        "settings": {
          "image": "//via.placeholder.com/225x60"
        }
      }
    ]
  }
}
